Conjunction Analysis
…
E1 = number of encounters < 1km per year

E.5 = number of encounters < 0.5km per year

Consequence:

MF = mass of object (proportional to amount of debris produced)

DF = \(\frac{atmospheric~density ~(AD) ~at~ 500km}{AD ~at ~object's ~avg. ~altitude}\)

SF = spatial density of operational satellites

Then for each object, the risk is calculated as: \[Risk = [CR * AR * {E1 * (2 * E.5)}] * [MF * DF * SF]\]

## # A tibble: 1,268 x 15
##    noradId numtot  num1 num.5 totalRisk name  apogee perigee cluster cluster_new
##      <dbl>  <dbl> <dbl> <dbl>     <dbl> <chr> <chr>  <chr>   <chr>   <chr>      
##  1   29092     18     1     0    23.0   YAOG~ 621    619     elsewh~ cc615      
##  2   23560      6     0     0     0.903 ERS 2 499    497     elsewh~ cc615      
##  3   25977     27     2     1    34.4   HELI~ 623    620     elsewh~ cc615      
##  4   32792     33     0     0    12.7   RUBI~ 649    612     elsewh~ cc615      
##  5   26957     11     2     2    83.7   TES   559    506     elsewh~ cc615      
##  6   41337      5     0     0     0.894 ASTR~ 580    562     elsewh~ cc615      
##  7   23657     23     2     1    48.9   SICH~ 627    594     elsewh~ cc615      
##  8   37673      8     0     0     0.670 SAC-~ 653    651     elsewh~ cc615      
##  9    6350      2     0     0     0.105 COSM~ 515    495     elsewh~ cc615      
## 10   10095      6     0     0     0.345 COSM~ 619    566     elsewh~ cc615      
## # ... with 1,258 more rows, and 5 more variables: launch <dttm>,
## #   inclination <chr>, mass <chr>, country <chr>, type <chr>
